161250 Data Analysis - Chapter 0: Introduction: R, quarto, tidyverse
…
For example, consider the flights and airlines data from the nycflights13 package.

In one table we have flight information with an abbreviation for carrier, and in another we have a mapping between abbreviations and full names.

You can use a join to add the carrier names to the flight data:

library(nycflights13)
# Drop unimportant variables so it's easier to understand the join results.
flights2 <- flights %>% select(year:day, hour, origin, dest, tailnum, carrier)

flights2 %>% 
  left_join(airlines)

# A tibble: 336,776 × 9
    year month   day  hour origin dest  tailnum carrier name                    
   <int> <int> <int> <dbl> <chr>  <chr> <chr>   <chr>   <chr>                   
 1  2013     1     1     5 EWR    IAH   N14228  UA      United Air Lines Inc.   
 2  2013     1     1     5 LGA    IAH   N24211  UA      United Air Lines Inc.   
 3  2013     1     1     5 JFK    MIA   N619AA  AA      American Airlines Inc.  
 4  2013     1     1     5 JFK    BQN   N804JB  B6      JetBlue Airways         
 5  2013     1     1     6 LGA    ATL   N668DN  DL      Delta Air Lines Inc.    
 6  2013     1     1     5 EWR    ORD   N39463  UA      United Air Lines Inc.   
 7  2013     1     1     6 EWR    FLL   N516JB  B6      JetBlue Airways         
 8  2013     1     1     6 LGA    IAD   N829AS  EV      ExpressJet Airlines Inc.
 9  2013     1     1     6 JFK    MCO   N593JB  B6      JetBlue Airways         
10  2013     1     1     6 LGA    ORD   N3ALAA  AA      American Airlines Inc.  
# ℹ 336,766 more rows
…
