161250 Data Analysis - Getting Started With R
…
You can also load data from the web using a URL. For example,

Code

read_csv("https://www.massey.ac.nz/~anhsmith/data/rangitikei.csv")

Rows: 33 Columns: 10
── Column specification ────────────────────────────────────────────────────────
Delimiter: ","
dbl (10): id, loc, time, w.e, cl, wind, temp, river, people, vehicle

ℹ Use `spec()` to retrieve the full column specification for this data.
ℹ Specify the column types or set `show_col_types = FALSE` to quiet this message.

# A tibble: 33 × 10
      id   loc  time   w.e    cl  wind  temp river people vehicle
   <dbl> <dbl> <dbl> <dbl> <dbl> <dbl> <dbl> <dbl>  <dbl>   <dbl>
 1     1     1     2     1     1     2     2     1     37      15
 2     2     1     1     1     1     2     1     2     23       6
 3     3     1     2     1     1     2     2     3     87      31
 4     4     2     2     1     1     2     1     1     86      27
 5     5     2     1     1     1     2     2     2     19       2
 6     6     2     2     1     2     1     3     3    136      23
 7     7     1     2     2     2     2     2     3     14       8
 8     8     1     2     1     2     2     2     3     67      26
 9     9     1     1     2     1     3     1     2      4       3
10    10     2     2     1     2     2     2     3    127      45
# ℹ 23 more rows
…
